\relax 
\citation{mendenhall1901mechanical}
\citation{van2005new}
\citation{mosteller1963inference}
\citation{baayen1996outside}
\citation{koppel2003exploiting}
\citation{tweedie1998variable}
\citation{kevselj2003n,dinu2008authorship}
\citation{koppel2004authorship}
\citation{marcus1971introduzione}
\citation{marcus1973mathematische}
\select@language{english}
\@writefile{toc}{\select@language{english}}
\@writefile{lof}{\select@language{english}}
\@writefile{lot}{\select@language{english}}
\newlabel{sec-1}{{1.}{1}}
\citation{marcus2012rani}
\citation{dinu2012pastiche}
\newlabel{sec-2}{{2.}{2}}
\newlabel{sec-3}{{3.}{2}}
\citation{dinu2003classification}
\citation{popescu2008rank}
\citation{dinu2008authorship}
\citation{dinu2012pastiche}
\newlabel{sec-3-1}{{3.1.}{3}}
\newlabel{sec-3-2}{{3.2.}{3}}
\newlabel{sec-3-3}{{3.3.}{4}}
\newlabel{sec-4}{{4.}{4}}
\bibstyle{lrec}
\bibdata{article}
\bibcite{baayen1996outside}{\citename {Baayen \bgroup et al.\egroup }1996}
\bibcite{dinu2008authorship}{\citename {Dinu \bgroup et al.\egroup }2008}
\bibcite{dinu2012pastiche}{\citename {Dinu \bgroup et al.\egroup }2012}
\bibcite{dinu2003classification}{\citename {Dinu}2003}
\bibcite{kevselj2003n}{\citename {Ke{\v {s}}elj \bgroup et al.\egroup }2003}
\newlabel{results1}{{1}{5}}
\newlabel{results2}{{2}{5}}
\newlabel{sec-5}{{5.}{5}}
\bibcite{koppel2003exploiting}{\citename {Koppel and Schler}2003}
\bibcite{koppel2004authorship}{\citename {Koppel and Schler}2004}
\bibcite{marcus1971introduzione}{\citename {Marcus \bgroup et al.\egroup }1971}
\bibcite{marcus1973mathematische}{\citename {Marcus}1973}
\bibcite{marcus2012rani}{\citename {Marcus}2012 2017}
\bibcite{mendenhall1901mechanical}{\citename {Mendenhall}1901}
\bibcite{mosteller1963inference}{\citename {Mosteller and Wallace}1963}
\bibcite{popescu2008rank}{\citename {Popescu and Dinu}2008}
\bibcite{tweedie1998variable}{\citename {Tweedie and Baayen}1998}
\bibcite{van2005new}{\citename {Van~ Halteren \bgroup et al.\egroup }2005}
