\relax 
\citation{mendenhall1901mechanical}
\citation{van2005new}
\citation{mosteller1963inference}
\citation{baayen1996outside}
\citation{koppel2003exploiting}
\citation{tweedie1998variable}
\citation{kevselj2003n}
\citation{dinu2008authorship}
\citation{koppel2004authorship}
\select@language{english}
\@writefile{toc}{\select@language{english}}
\@writefile{lof}{\select@language{english}}
\@writefile{lot}{\select@language{english}}
\@writefile{toc}{\contentsline {section}{\numberline {1}Previous Work and Motivation}{1}}
\newlabel{sec-1}{{1}{1}}
\citation{marcus1971introduzione}
\citation{marcus1973mathematische}
\citation{marcus2012rani}
\citation{dinu-dinu-dumitru:2017:RANLP}
\@writefile{toc}{\contentsline {section}{\numberline {2}The Corpus}{2}}
\newlabel{sec-2}{{2}{2}}
\citation{dinu2012pastiche}
\citation{dinu2003classification}
\citation{popescu2008rank}
\citation{dinu2008authorship}
\citation{dinu2012pastiche}
\@writefile{toc}{\contentsline {section}{\numberline {3}Methodology}{3}}
\newlabel{sec-3}{{3}{3}}
\@writefile{toc}{\contentsline {subsection}{\numberline {3.1}Clustering Experiments}{3}}
\newlabel{sec-3-1}{{3.1}{3}}
\@writefile{toc}{\contentsline {subsection}{\numberline {3.2}Dimensionality Reduction and Visualization}{3}}
\newlabel{sec-3-2}{{3.2}{3}}
\@writefile{lof}{\contentsline {figure}{\numberline {1}{\ignorespaces Style dendrogram: Hierarchical clustering of function word vectors}}{4}}
\@writefile{toc}{\contentsline {subsection}{\numberline {3.3}Classification Experiments}{4}}
\newlabel{sec-3-3}{{3.3}{4}}
\@writefile{toc}{\contentsline {subsubsection}{\numberline {3.3.1}Features}{4}}
\newlabel{sec-3-3-1}{{3.3.1}{4}}
\citation{senter1967automated}
\@writefile{lof}{\contentsline {figure}{\numberline {2}{\ignorespaces Style space: 2-D visualization of function word vectors}}{5}}
\@writefile{lof}{\contentsline {figure}{\numberline {3}{\ignorespaces Topic dendrogram: Hierarchical clustering on content word vectors}}{6}}
\@writefile{toc}{\contentsline {subsection}{\numberline {3.4}Temporal variation of stylistic metrics}{6}}
\newlabel{sec-3-4}{{3.4}{6}}
\@writefile{lof}{\contentsline {figure}{\numberline {4}{\ignorespaces Topic space: 2-D visualization of content word vectors}}{7}}
\@writefile{toc}{\contentsline {section}{\numberline {4}Results and Analysis}{7}}
\newlabel{sec-4}{{4}{7}}
\@writefile{lof}{\contentsline {figure}{\numberline {5}{\ignorespaces Evolution of readability over time}}{8}}
\@writefile{lof}{\contentsline {figure}{\numberline {6}{\ignorespaces Evolution of lexical richness over time}}{9}}
\@writefile{lot}{\contentsline {table}{\numberline {1}{\ignorespaces Results of classifying texts into periods}}{9}}
\newlabel{results1}{{1}{9}}
\@writefile{lof}{\contentsline {figure}{\numberline {7}{\ignorespaces Evolution of average word length over time}}{10}}
\@writefile{lot}{\contentsline {table}{\numberline {2}{\ignorespaces Results of classifying texts into volumes}}{10}}
\newlabel{results2}{{2}{10}}
\@writefile{toc}{\contentsline {section}{\numberline {5}Conclusions and Future Directions}{10}}
\newlabel{sec-5}{{5}{10}}
\bibstyle{splncs03}
\bibdata{article}
\bibcite{baayen1996outside}{1}
\@writefile{lof}{\contentsline {figure}{\numberline {8}{\ignorespaces Evolution of average sentence length over time}}{11}}
\newlabel{sec-6}{{5}{11}}
\bibcite{dinu-dinu-dumitru:2017:RANLP}{2}
\bibcite{dinu2003classification}{3}
\bibcite{dinu2012pastiche}{4}
\bibcite{dinu2008authorship}{5}
\bibcite{kevselj2003n}{6}
\bibcite{koppel2003exploiting}{7}
\bibcite{koppel2004authorship}{8}
\bibcite{marcus1973mathematische}{9}
\bibcite{marcus2012rani}{10}
\bibcite{marcus1971introduzione}{11}
\bibcite{mendenhall1901mechanical}{12}
\bibcite{mosteller1963inference}{13}
\bibcite{popescu2008rank}{14}
\bibcite{senter1967automated}{15}
\bibcite{tweedie1998variable}{16}
\bibcite{van2005new}{17}
